TirNanoG Object
Leather
1 1 0 - - 3 coin 0 0 1
8
s body -
f armor_leather_idle armor_leather_walk armor_leather_climb armor_leather_jump armor_leather_run - - armor_leather_block armor_leather_hurt armor_leather_die armor_leather_slash armor_leather_thrust armor_leather_bowing armor_leather_cast - - - - - -
b - - - - - - - - - - - - - - - - - - - -
e touch {
  remove()
  give(armor_leather,1)
}
