TirNanoG Object
Robe red
1 1 0 - - 5 coin 0 0 1
8
s body -
s legs -
f robe_red_idle robe_red_walk robe_red_climb robe_red_jump robe_red_run - - robe_red_block robe_red_hurt robe_red_die robe_red_slash robe_red_thrust robe_red_bowing robe_red_cast - - - - - -
b - - - - - - - - - - - - - - - - - - - -
e touch {
  remove()
  give(robe_red,1)
}
